camueller,Cäcilie Margarethe,Müller,12,4,f,n-Hexane (1) / Toluene (2),
csuenderh,Carl-Philipp Klaus,Sünderhauf,11,2,m,Ethanol (1) / Benzene (2),
heseng,Henrik,Seng,11,2,m,Ethanol (1) / Benzene (2),
kbrupbacher,Katherine Sheilagh,Brupbacher,11,3,f,Ethyl Acetate (1) / Ethanol (2),
fdomberger,Franziska Sai-Si,Domberger,11,3,f,Ethyl Acetate (1) / Ethanol (2),
lsieben,Leif Garrelt,Sieben,11,4,m,Isopropanol (1) / Toluene (2),
deriva,Debora Maria,Riva,11,4,f,Isopropanol (1) / Toluene (2),
yzimmermann,Yoel Avram,Zimmermann,12,1,m,Cyclohexane (1) / Ethanol (2),
nknudsen,Nanna Simonÿ,Knudsen,12,1,f,Cyclohexane (1) / Ethanol (2),
ademiu,Urim,Ademi,12,2,m,Acetone (1) / Isopropanol (2),
lmurseli,Leonor,Murseli,12,2,f,Isopropanol (1) / Acetone (2),
houren,Houfu,Ren,12,3,m,Benzene (1) / Toluene (2),
sschwaiger,Sebastian,Schwaiger,12,3,m,Benzene (1) / Toluene (2),
rbosshard,Remo,Bosshard,12,4,m,n-Hexane (1) / Toluene (2),
marnierg,Georgios Andrea,Marnieros,12,4,m,n-Hexane (1) / Toluene (2),
